5 A Grammar for Graphs | Applied Spatial Statistics for Geographers
…
## See spec(...) for full column specifications.

## Warning: 113562 parsing failures.
##  row  col           expected actual                                                          file
## 1675 TOBS 1/0/T/F/TRUE/FALSE    267 'http://myweb.fsu.edu/jelsner/temp/data/TLH_DailySummary.csv'
## 1676 TOBS 1/0/T/F/TRUE/FALSE    267 'http://myweb.fsu.edu/jelsner/temp/data/TLH_DailySummary.csv'
## 1677 TOBS 1/0/T/F/TRUE/FALSE    278 'http://myweb.fsu.edu/jelsner/temp/data/TLH_DailySummary.csv'
## 1678 TOBS 1/0/T/F/TRUE/FALSE    289 'http://myweb.fsu.edu/jelsner/temp/data/TLH_DailySummary.csv'
## 1679 TOBS 1/0/T/F/TRUE/FALSE    283 'http://myweb.fsu.edu/jelsner/temp/data/TLH_DailySummary.csv'
## .... .... .................. ...... .............................................................
## See problems(...) for more details.

## # A tibble: 24,119 x 48
##    STATION ELEVATION LATITUDE LONGITUDE   DATE  PRCP  SNWD  SNOW ACMH  ACSH 
##    <chr>       <dbl>    <dbl>     <dbl>  <dbl> <dbl> <dbl> <dbl> <lgl> <lgl>
##  1 GHCND:…        21     30.4     -84.3 1.95e7     0     0     0 NA    NA   
##  2 GHCND:…        21     30.4     -84.3 1.95e7     0     0     0 NA    NA   
##  3 GHCND:…        21     30.4     -84.3 1.95e7     0     0     0 NA    NA   
##  4 GHCND:…        21     30.4     -84.3 1.95e7     0     0     0 NA    NA   
##  5 GHCND:…        21     30.4     -84.3 1.95e7     8     0     0 NA    NA   
##  6 GHCND:…        21     30.4     -84.3 1.95e7     5     0     0 NA    NA   
##  7 GHCND:…        21     30.4     -84.3 1.95e7     0     0     0 NA    NA   
##  8 GHCND:…        21     30.4     -84.3 1.95e7     0     0     0 NA    NA   
##  9 GHCND:…        21     30.4     -84.3 1.95e7     0     0     0 NA    NA   
## 10 GHCND:…        21     30.4     -84.3 1.95e7     0     0     0 NA    NA   
## # … with 24,109 more rows, and 38 more variables: TSUN <lgl>, TMAX <dbl>,
## #   TMIN <dbl>, TOBS <lgl>, GAHT <lgl>, FRGT <lgl>, WESD <lgl>, AWND <lgl>,
## #   WDF1 <lgl>, WDF2 <lgl>, WDF5 <lgl>, WDFG <lgl>, WSF1 <lgl>, WSF2 <lgl>,
## #   WSF5 <lgl>, WSFG <dbl>, PGTM <lgl>, FMTM <lgl>, WT09 <lgl>, WT14 <dbl>,
## #   WT07 <dbl>, WT01 <dbl>, WT17 <lgl>, WT06 <lgl>, WT21 <lgl>, WT05 <dbl>,
## #   WT02 <lgl>, WT11 <lgl>, WT22 <lgl>, WT04 <lgl>, WT13 <lgl>, WT16 <dbl>,
## #   WT08 <dbl>, WT18 <lgl>, WT03 <dbl>, WT10 <lgl>, WT19 <lgl>, WV03 <lgl>
…
##   LONGITUDE = col_character(),
##   DATE = col_double(),
##   TMAX = col_double(),
##   `Measurement Flag` = col_logical(),
##   `Quality Flag` = col_logical(),
##   `Source Flag` = col_character(),
##   `Time of Observation` = col_double(),
##   TMIN = col_double(),
##   `Measurement Flag_1` = col_logical(),
##   `Quality Flag_1` = col_logical(),
##   `Source Flag_1` = col_character(),
##   `Time of Observation_1` = col_double()
## )

## # A tibble: 23,872 x 16
##    STATION STATION_NAME ELEVATION LATITUDE LONGITUDE   DATE  TMAX
##    <chr>   <chr>        <chr>     <chr>    <chr>      <dbl> <dbl>
##  1 GHCND:… LAS VEGAS M… unknown   unknown  unknown   1.95e7   406
##  2 GHCND:… LAS VEGAS M… unknown   unknown  unknown   1.95e7   400
##  3 GHCND:… LAS VEGAS M… unknown   unknown  unknown   1.95e7   394
##  4 GHCND:… LAS VEGAS M… unknown   unknown  unknown   1.95e7   411
##  5 GHCND:… LAS VEGAS M… unknown   unknown  unknown   1.95e7   411
##  6 GHCND:… LAS VEGAS M… unknown   unknown  unknown   1.95e7   417
##  7 GHCND:… LAS VEGAS M… unknown   unknown  unknown   1.95e7   422
##  8 GHCND:… LAS VEGAS M… unknown   unknown  unknown   1.95e7   428
##  9 GHCND:… LAS VEGAS M… unknown   unknown  unknown   1.95e7   411
## 10 GHCND:… LAS VEGAS M… unknown   unknown  unknown   1.95e7   394
## # … with 23,862 more rows, and 9 more variables: `Measurement Flag` <lgl>,
## #   `Quality Flag` <lgl>, `Source Flag` <chr>, `Time of Observation` <dbl>,
## #   TMIN <dbl>, `Measurement Flag_1` <lgl>, `Quality Flag_1` <lgl>, `Source
## #   Flag_1` <chr>, `Time of Observation_1` <dbl>
…
