4 A Grammar for Data | Applied Spatial Statistics for Geographers
…
## [1] "tbl_df"     "tbl"        "data.frame"

Click on airquality in the environment. It is a data frame. We will use the terms ‘tibble’ and ‘data frame’ interchangeably (mostly).

Now we are ready to look at some of the commonly used verbs and how to apply them to the data frame airquality.

4.3 Select

The function select() chooses variables by name. For example, choose the month, day, and temperature columns.

airquality %>%
  select(Month, Day, Temp)

## # A tibble: 153 x 3
##    Month   Day  Temp
##    <int> <int> <int>
##  1     5     1    67
##  2     5     2    72
##  3     5     3    74
##  4     5     4    62
##  5     5     5    56
##  6     5     6    66
##  7     5     7    65
##  8     5     8    59
##  9     5     9    61
## 10     5    10    69
## # … with 143 more rows

Suppose we want a new data frame with only the temperature and ozone concentrations.

df <- airquality %>%
        select(Temp, Ozone)
df

## # A tibble: 153 x 2
##     Temp Ozone
##    <int> <int>
##  1    67    41
##  2    72    36
##  3    74    12
##  4    62    18
##  5    56    NA
##  6    66    28
##  7    65    23
##  8    59    19
##  9    61     8
## 10    69    NA
## # … with 143 more rows

We include an assignment operator (<-, left pointing arrow) and an object name (here df).

Note: The result of applying a dplyr verb is a data frame. From a data frame object to a data frame object.

4.4 Filter

The function filter() chooses observations based on specific values. Suppose we want only the observations where the temperature is at or above 80F.

airquality %>%
  filter(Temp >= 80)

## # A tibble: 73 x 6
##    Ozone Solar.R  Wind  Temp Month   Day
##    <int>   <int> <dbl> <int> <int> <int>
##  1    45     252  14.9    81     5    29
##  2    NA     186   9.2    84     6     4
##  3    NA     220   8.6    85     6     5
##  4    29     127   9.7    82     6     7
##  5    NA     273   6.9    87     6     8
##  6    71     291  13.8    90     6     9
##  7    39     323  11.5    87     6    10
##  8    NA     259  10.9    93     6    11
##  9    NA     250   9.2    92     6    12
## 10    23     148   8      82     6    13
## # … with 63 more rows
…
4.5 Arrange

The function arrange() orders the rows by values given in a particular column.

airquality %>%
  arrange(Solar.R)

## # A tibble: 153 x 6
##    Ozone Solar.R  Wind  Temp Month   Day
##    <int>   <int> <dbl> <int> <int> <int>
##  1    16       7   6.9    74     7    21
##  2     1       8   9.7    59     5    21
##  3    23      13  12      67     5    28
##  4    23      14   9.2    71     9    22
##  5     8      19  20.1    61     5     9
##  6    14      20  16.6    63     9    25
##  7     9      24  13.8    81     8     2
##  8     9      24  10.9    71     9    14
##  9     4      25   9.7    61     5    23
## 10    13      27  10.3    76     9    18
## # … with 143 more rows

The ordering is from lowest value of radiation to highest value. Here we see the first 10 rows. Note Month and Day are no longer chronological.

Repeat but order by the value of air temperature.

airquality %>%
  arrange(Temp)

## # A tibble: 153 x 6
##    Ozone Solar.R  Wind  Temp Month   Day
##    <int>   <int> <dbl> <int> <int> <int>
##  1    NA      NA  14.3    56     5     5
##  2     6      78  18.4    57     5    18
##  3    NA      66  16.6    57     5    25
##  4    NA      NA   8      57     5    27
##  5    18      65  13.2    58     5    15
##  6    NA     266  14.9    58     5    26
##  7    19      99  13.8    59     5     8
##  8     1       8   9.7    59     5    21
##  9     8      19  20.1    61     5     9
## 10     4      25   9.7    61     5    23
## # … with 143 more rows
…
The result is a data frame with three columns and 14 rows arranged by increasing temperatures above 90F.

4.6 Mutate

The mutate() function adds new columns to the data frame. For example, create a new column called TempC as the temperature in degrees Celcius. Also create a column called WindMS as the wind speed in meters per second.

airquality %>%
  mutate(TempC = (Temp - 32) * 5/9,
         WindMS = Wind * .44704) 

## # A tibble: 153 x 8
##    Ozone Solar.R  Wind  Temp Month   Day TempC WindMS
##    <int>   <int> <dbl> <int> <int> <int> <dbl>  <dbl>
##  1    41     190   7.4    67     5     1  19.4   3.31
##  2    36     118   8      72     5     2  22.2   3.58
##  3    12     149  12.6    74     5     3  23.3   5.63
##  4    18     313  11.5    62     5     4  16.7   5.14
##  5    NA      NA  14.3    56     5     5  13.3   6.39
##  6    28      NA  14.9    66     5     6  18.9   6.66
##  7    23     299   8.6    65     5     7  18.3   3.84
##  8    19      99  13.8    59     5     8  15     6.17
##  9     8      19  20.1    61     5     9  16.1   8.99
## 10    NA     194   8.6    69     5    10  20.6   3.84
## # … with 143 more rows
…
Month and Year are column names in df that were created with the rename() and select() functions above.

Q: How would you create a new data frame containing only tornadoes originating in Wisconsin?

sfdf %>%
  filter(ST == "WI")

## Simple feature collection with 195 features and 9 fields
## geometry type:  POINT
## dimension:      XY
## bbox:           xmin: -92.675 ymin: 42.5323 xmax: -87.72 ymax: 46.3618
## CRS:            4326
## # A tibble: 195 x 10
##     Year Month ST       EF Date       Length Width Fatalities Injuries
##  * <dbl> <dbl> <chr> <dbl> <date>      <dbl> <dbl>      <dbl>    <dbl>
##  1  2001     5 WI        1 2001-05-01  2414. 114.           0        0
##  2  2001     6 WI        1 2001-06-11 12875.  68.6          0        0
##  3  2001     6 WI        1 2001-06-11 10139.  68.6          0        0
##  4  2001     6 WI        3 2001-06-18 54718. 805.           2       16
##  5  2001     8 WI        1 2001-08-25  7242.  45.7          0        0
##  6  2002     4 WI        1 2002-04-18 22531.  91.4          0        0
##  7  2002     6 WI        1 2002-06-25   483.  64.0          0        2
##  8  2002     9 WI        3 2002-09-02 25749. 402.           0       27
##  9  2002     9 WI        2 2002-09-02 27359.  68.6          0        0
## 10  2002     9 WI        1 2002-09-02  8047. 183.           0        1
## # … with 185 more rows, and 1 more variable: geometry <POINT [°]>
…
n(): number of observations in the current group.

n_distinct(): count the number of unique values.

first(), last() and nth() - these work similarly to x[1], x[length(x)], and x[n] but give you more control of the result if the value isn’t present.

For example, we use these to find the number of tornadoes by state and the number of months in which there was at least one tornado.

df %>%
  group_by(ST) %>%
  summarize(months = n_distinct(Month),
            nT = n())

## # A tibble: 48 x 3
##    ST    months    nT
##    <chr>  <int> <int>
##  1 AL        12   579
##  2 AR        12   469
##  3 AZ         3     9
##  4 CA         9    26
##  5 CO         8    99
##  6 CT         4    21
##  7 DE         3     3
##  8 FL        12   213
##  9 GA        12   352
## 10 IA        10   358
## # … with 38 more rows
…
## The following objects are masked from 'package:dplyr':
## 
##     intersect, setdiff, union

## The following objects are masked from 'package:base':
## 
##     date, intersect, setdiff, union

df %>%
  mutate(Day = day(Date)) %>%
  group_by(Month, Day) %>%
  summarize(nT = n())

## # A tibble: 355 x 3
## # Groups:   Month [12]
##    Month   Day    nT
##    <dbl> <int> <int>
##  1     1     1     8
##  2     1     2    45
##  3     1     3     9
##  4     1     4     8
##  5     1     5     8
##  6     1     7    24
##  7     1     8    15
##  8     1     9     3
##  9     1    10    15
## 10     1    11     5
## # … with 345 more rows

The result is a data frame with the number of tornadoes by day of the year.

There are functions that combine some of the primitives. For example, we can use tally() instead of summarize(nT = n()) or count() instead of both group_by() and summarize(). For example, the following code does the same thing.

df %>%
  mutate(Day = day(Date)) %>%
  count(Month, Day)

## # A tibble: 355 x 3
##    Month   Day     n
##    <dbl> <int> <int>
##  1     1     1     8
##  2     1     2    45
##  3     1     3     9
##  4     1     4     8
##  5     1     5     8
##  6     1     7    24
##  7     1     8    15
##  8     1     9     3
##  9     1    10    15
## 10     1    11     5
## # … with 345 more rows

Q: What state had the most tornado fatalities?

df %>%
  group_by(ST) %>%
  summarize(nF = sum(Fatalities)) %>%
  arrange(desc(nF))

## # A tibble: 48 x 2
##    ST       nF
##    <chr> <dbl>
##  1 AL      284
##  2 MO      221
##  3 TN      127
##  4 MS      100
##  5 OK       89
##  6 GA       70
##  7 AR       68
##  8 KY       65
##  9 TX       56
## 10 NC       42
## # … with 38 more rows
