1 Grammars for Data and Graphs | Applied Spatial Statistics for Geographers
…
## [1] "tbl_df"     "tbl"        "data.frame"

Click on airquality in the environment. It is a data frame. We will use the terms ‘tibble’ and ‘data frame’ interchangeably (mostly).

Now we are ready to look at some of the commonly used verbs and how to apply them to the data frame airquality.

1.1.3 Select

The function select() chooses variables by name. For example, choose the month, day, and temperature columns.

airquality %>%
  select(Month, Day, Temp)

## # A tibble: 153 x 3
##    Month   Day  Temp
##    <int> <int> <int>
##  1     5     1    67
##  2     5     2    72
##  3     5     3    74
##  4     5     4    62
##  5     5     5    56
##  6     5     6    66
##  7     5     7    65
##  8     5     8    59
##  9     5     9    61
## 10     5    10    69
## # … with 143 more rows

Suppose we want a new data frame with only the temperature and ozone concentrations.

df <- airquality %>%
        select(Temp, Ozone)
df

## # A tibble: 153 x 2
##     Temp Ozone
##    <int> <int>
##  1    67    41
##  2    72    36
##  3    74    12
##  4    62    18
##  5    56    NA
##  6    66    28
##  7    65    23
##  8    59    19
##  9    61     8
## 10    69    NA
## # … with 143 more rows

We include an assignment operator (<-, left pointing arrow) and an object name (here df).

Note: The result of applying a dplyr verb is a data frame. From a data frame object to a data frame object.

1.1.4 Filter

The function filter() chooses observations based on specific values. Suppose we want only the observations where the temperature is at or above 80F.

airquality %>%
  filter(Temp >= 80)

## # A tibble: 73 x 6
##    Ozone Solar.R  Wind  Temp Month   Day
##    <int>   <int> <dbl> <int> <int> <int>
##  1    45     252  14.9    81     5    29
##  2    NA     186   9.2    84     6     4
##  3    NA     220   8.6    85     6     5
##  4    29     127   9.7    82     6     7
##  5    NA     273   6.9    87     6     8
##  6    71     291  13.8    90     6     9
##  7    39     323  11.5    87     6    10
##  8    NA     259  10.9    93     6    11
##  9    NA     250   9.2    92     6    12
## 10    23     148   8      82     6    13
## # … with 63 more rows
…
1.1.5 Arrange

The function arrange() orders the rows by values given in a particular column.

airquality %>%
  arrange(Solar.R)

## # A tibble: 153 x 6
##    Ozone Solar.R  Wind  Temp Month   Day
##    <int>   <int> <dbl> <int> <int> <int>
##  1    16       7   6.9    74     7    21
##  2     1       8   9.7    59     5    21
##  3    23      13  12      67     5    28
##  4    23      14   9.2    71     9    22
##  5     8      19  20.1    61     5     9
##  6    14      20  16.6    63     9    25
##  7     9      24  13.8    81     8     2
##  8     9      24  10.9    71     9    14
##  9     4      25   9.7    61     5    23
## 10    13      27  10.3    76     9    18
## # … with 143 more rows

The ordering is from lowest value of radiation to highest value. Here we see the first 10 rows. Note Month and Day are no longer chronological.

Repeat but order by the value of air temperature.

airquality %>%
  arrange(Temp)

## # A tibble: 153 x 6
##    Ozone Solar.R  Wind  Temp Month   Day
##    <int>   <int> <dbl> <int> <int> <int>
##  1    NA      NA  14.3    56     5     5
##  2     6      78  18.4    57     5    18
##  3    NA      66  16.6    57     5    25
##  4    NA      NA   8      57     5    27
##  5    18      65  13.2    58     5    15
##  6    NA     266  14.9    58     5    26
##  7    19      99  13.8    59     5     8
##  8     1       8   9.7    59     5    21
##  9     8      19  20.1    61     5     9
## 10     4      25   9.7    61     5    23
## # … with 143 more rows
…
The result is a data frame with three columns and 14 rows arranged by increasing temperatures above 90F.

1.1.6 Mutate

The mutate() function adds new columns to the data frame. For example, create a new column called TempC as the temperature in degrees Celcius. Also create a column called WindMS as the wind speed in meters per second.

airquality %>%
  mutate(TempC = (Temp - 32) * 5/9,
         WindMS = Wind * .44704) 

## # A tibble: 153 x 8
##    Ozone Solar.R  Wind  Temp Month   Day TempC WindMS
##    <int>   <int> <dbl> <int> <int> <int> <dbl>  <dbl>
##  1    41     190   7.4    67     5     1  19.4   3.31
##  2    36     118   8      72     5     2  22.2   3.58
##  3    12     149  12.6    74     5     3  23.3   5.63
##  4    18     313  11.5    62     5     4  16.7   5.14
##  5    NA      NA  14.3    56     5     5  13.3   6.39
##  6    28      NA  14.9    66     5     6  18.9   6.66
##  7    23     299   8.6    65     5     7  18.3   3.84
##  8    19      99  13.8    59     5     8  15     6.17
##  9     8      19  20.1    61     5     9  16.1   8.99
## 10    NA     194   8.6    69     5    10  20.6   3.84
## # … with 143 more rows
…
1.1.11 Filter rows with filter()

The filter() function selects a subset of the rows of a data frame. The arguments are filtering (subsetting) expressions evaluated using column names of the data frame. For example, we can select all tornadoes recorded during October of 1980.

sfdf %>%
  filter(Month == 10, 
         Year == 1980)

## Simple feature collection with 43 features and 9 fields
## geometry type:  POINT
## dimension:      XY
## bbox:           xmin: -105.22 ymin: 29.53 xmax: -77.03 ymax: 42.77
## CRS:            4326
## # A tibble: 43 x 10
##     Year Month ST       EF Date       Length  Width Fatalities Injuries
##  * <dbl> <dbl> <chr> <dbl> <date>      <dbl>  <dbl>      <dbl>    <dbl>
##  1  1980    10 NC        1 1980-10-03  2414. 457.            0        0
##  2  1980    10 NE        2 1980-10-15   161.  70.4           0        0
##  3  1980    10 KS        0 1980-10-15   161.   9.14          0        0
##  4  1980    10 KS        0 1980-10-15  8208.  91.4           0        0
##  5  1980    10 CO        2 1980-10-15  2414.  45.7           0        0
##  6  1980    10 NE        1 1980-10-15   161.  24.7           0        0
##  7  1980    10 KS        3 1980-10-15 21404. 137.            0        4
##  8  1980    10 NE        0 1980-10-15   322.  24.7           0        0
##  9  1980    10 NE        0 1980-10-15   161.  27.4           0        0
## 10  1980    10 KS        3 1980-10-16   161.   9.14          0        0
## # … with 33 more rows, and 1 more variable: geometry <POINT [°]>

Month and Year are column names in df that were created with the rename() and select() functions above.

Q: How would you create a new data frame containing only tornadoes originating in Wisconsin?

sfdf %>%
  filter(ST == "WI")

## Simple feature collection with 1380 features and 9 fields
## geometry type:  POINT
## dimension:      XY
## bbox:           xmin: -92.78 ymin: 42.5 xmax: -87.17 ymax: 46.72
## CRS:            4326
## # A tibble: 1,380 x 10
##     Year Month ST       EF Date       Length  Width Fatalities Injuries
##  * <dbl> <dbl> <chr> <dbl> <date>      <dbl>  <dbl>      <dbl>    <dbl>
##  1  1950     6 WI        1 1950-06-25   805.   9.14          0        0
##  2  1950     6 WI        2 1950-06-25 13518.   9.14          0        0
##  3  1950     6 WI        2 1950-06-25 12553.  15.5           1        0
##  4  1950     6 WI        4 1950-06-25 21082. 805.            2       12
##  5  1950     6 WI        3 1950-06-25   161. 274.            0        0
##  6  1951     6 WI        2 1951-06-19  1609. 427.            0        0
##  7  1951     7 WI        2 1951-07-03   805.  45.7           0        0
##  8  1951     9 WI        3 1951-09-12 39268. 183.            0        1
##  9  1951     9 WI        4 1951-09-26 42487.  91.4           6        3
## 10  1951     9 WI        4 1951-09-26 14484.  91.4           1        9
## # … with 1,370 more rows, and 1 more variable: geometry <POINT [°]>
…
n(): number of observations in the current group.

n_distinct(): count the number of unique values.

first(), last() and nth() - these work similarly to x[1], x[length(x)], and x[n] but give you more control of the result if the value isn’t present.

For example, we use these to find the number of tornadoes by state and the number of months in which there was at least one tornado.

df %>%
  group_by(ST) %>%
  summarize(months = n_distinct(Month),
            nT = n())

## # A tibble: 52 x 3
##    ST    months    nT
##    <chr>  <int> <int>
##  1 AK         3     4
##  2 AL        12  2143
##  3 AR        12  1809
##  4 AZ        12   250
##  5 CA        12   436
##  6 CO         9  2174
##  7 CT         7   104
##  8 DC         2     2
##  9 DE        10    61
## 10 FL        12  3381
## # … with 42 more rows
…
## The following objects are masked from 'package:dplyr':
## 
##     intersect, setdiff, union

## The following objects are masked from 'package:base':
## 
##     date, intersect, setdiff, union

df %>%
  mutate(Day = day(Date)) %>%
  group_by(Month, Day) %>%
  summarize(nT = n())

## # A tibble: 366 x 3
## # Groups:   Month [12]
##    Month   Day    nT
##    <dbl> <int> <int>
##  1     1     1    28
##  2     1     2    89
##  3     1     3    51
##  4     1     4    26
##  5     1     5    36
##  6     1     6    26
##  7     1     7    80
##  8     1     8    47
##  9     1     9    33
## 10     1    10    72
## # … with 356 more rows

The result is a data frame with the number of tornadoes by day of the year.

There are functions that combine some of the primitives. For example, we can use tally() instead of summarize(nT = n()) or count() instead of both group_by() and summarize(). For example, the following code does the same thing.

df %>%
  mutate(Day = day(Date)) %>%
  count(Month, Day)

## # A tibble: 366 x 3
##    Month   Day     n
##    <dbl> <int> <int>
##  1     1     1    28
##  2     1     2    89
##  3     1     3    51
##  4     1     4    26
##  5     1     5    36
##  6     1     6    26
##  7     1     7    80
##  8     1     8    47
##  9     1     9    33
## 10     1    10    72
## # … with 356 more rows

Q: What state had the most tornado fatalities?

df %>%
  group_by(ST) %>%
  summarize(nF = sum(Fatalities)) %>%
  arrange(desc(nF))

## # A tibble: 52 x 2
##    ST       nF
##    <chr> <dbl>
##  1 AL      628
##  2 TX      584
##  3 MS      461
##  4 OK      432
##  5 AR      392
##  6 MO      346
##  7 TN      325
##  8 IN      268
##  9 OH      225
## 10 GA      219
## # … with 42 more rows
…
## See spec(...) for full column specifications.

## Warning: 113562 parsing failures.
##  row  col           expected actual                                                          file
## 1675 TOBS 1/0/T/F/TRUE/FALSE    267 'http://myweb.fsu.edu/jelsner/temp/data/TLH_DailySummary.csv'
## 1676 TOBS 1/0/T/F/TRUE/FALSE    267 'http://myweb.fsu.edu/jelsner/temp/data/TLH_DailySummary.csv'
## 1677 TOBS 1/0/T/F/TRUE/FALSE    278 'http://myweb.fsu.edu/jelsner/temp/data/TLH_DailySummary.csv'
## 1678 TOBS 1/0/T/F/TRUE/FALSE    289 'http://myweb.fsu.edu/jelsner/temp/data/TLH_DailySummary.csv'
## 1679 TOBS 1/0/T/F/TRUE/FALSE    283 'http://myweb.fsu.edu/jelsner/temp/data/TLH_DailySummary.csv'
## .... .... .................. ...... .............................................................
## See problems(...) for more details.

## # A tibble: 24,119 x 48
##    STATION ELEVATION LATITUDE LONGITUDE   DATE  PRCP  SNWD  SNOW ACMH  ACSH 
##    <chr>       <dbl>    <dbl>     <dbl>  <dbl> <dbl> <dbl> <dbl> <lgl> <lgl>
##  1 GHCND:…        21     30.4     -84.3 1.95e7     0     0     0 NA    NA   
##  2 GHCND:…        21     30.4     -84.3 1.95e7     0     0     0 NA    NA   
##  3 GHCND:…        21     30.4     -84.3 1.95e7     0     0     0 NA    NA   
##  4 GHCND:…        21     30.4     -84.3 1.95e7     0     0     0 NA    NA   
##  5 GHCND:…        21     30.4     -84.3 1.95e7     8     0     0 NA    NA   
##  6 GHCND:…        21     30.4     -84.3 1.95e7     5     0     0 NA    NA   
##  7 GHCND:…        21     30.4     -84.3 1.95e7     0     0     0 NA    NA   
##  8 GHCND:…        21     30.4     -84.3 1.95e7     0     0     0 NA    NA   
##  9 GHCND:…        21     30.4     -84.3 1.95e7     0     0     0 NA    NA   
## 10 GHCND:…        21     30.4     -84.3 1.95e7     0     0     0 NA    NA   
## # … with 24,109 more rows, and 38 more variables: TSUN <lgl>, TMAX <dbl>,
## #   TMIN <dbl>, TOBS <lgl>, GAHT <lgl>, FRGT <lgl>, WESD <lgl>, AWND <lgl>,
## #   WDF1 <lgl>, WDF2 <lgl>, WDF5 <lgl>, WDFG <lgl>, WSF1 <lgl>, WSF2 <lgl>,
## #   WSF5 <lgl>, WSFG <dbl>, PGTM <lgl>, FMTM <lgl>, WT09 <lgl>, WT14 <dbl>,
## #   WT07 <dbl>, WT01 <dbl>, WT17 <lgl>, WT06 <lgl>, WT21 <lgl>, WT05 <dbl>,
## #   WT02 <lgl>, WT11 <lgl>, WT22 <lgl>, WT04 <lgl>, WT13 <lgl>, WT16 <dbl>,
## #   WT08 <dbl>, WT18 <lgl>, WT03 <dbl>, WT10 <lgl>, WT19 <lgl>, WV03 <lgl>
…
##   LONGITUDE = col_character(),
##   DATE = col_double(),
##   TMAX = col_double(),
##   `Measurement Flag` = col_logical(),
##   `Quality Flag` = col_logical(),
##   `Source Flag` = col_character(),
##   `Time of Observation` = col_double(),
##   TMIN = col_double(),
##   `Measurement Flag_1` = col_logical(),
##   `Quality Flag_1` = col_logical(),
##   `Source Flag_1` = col_character(),
##   `Time of Observation_1` = col_double()
## )

## # A tibble: 23,872 x 16
##    STATION STATION_NAME ELEVATION LATITUDE LONGITUDE   DATE  TMAX
##    <chr>   <chr>        <chr>     <chr>    <chr>      <dbl> <dbl>
##  1 GHCND:… LAS VEGAS M… unknown   unknown  unknown   1.95e7   406
##  2 GHCND:… LAS VEGAS M… unknown   unknown  unknown   1.95e7   400
##  3 GHCND:… LAS VEGAS M… unknown   unknown  unknown   1.95e7   394
##  4 GHCND:… LAS VEGAS M… unknown   unknown  unknown   1.95e7   411
##  5 GHCND:… LAS VEGAS M… unknown   unknown  unknown   1.95e7   411
##  6 GHCND:… LAS VEGAS M… unknown   unknown  unknown   1.95e7   417
##  7 GHCND:… LAS VEGAS M… unknown   unknown  unknown   1.95e7   422
##  8 GHCND:… LAS VEGAS M… unknown   unknown  unknown   1.95e7   428
##  9 GHCND:… LAS VEGAS M… unknown   unknown  unknown   1.95e7   411
## 10 GHCND:… LAS VEGAS M… unknown   unknown  unknown   1.95e7   394
## # … with 23,862 more rows, and 9 more variables: `Measurement Flag` <lgl>,
## #   `Quality Flag` <lgl>, `Source Flag` <chr>, `Time of Observation` <dbl>,
## #   TMIN <dbl>, `Measurement Flag_1` <lgl>, `Quality Flag_1` <lgl>, `Source
## #   Flag_1` <chr>, `Time of Observation_1` <dbl>
…
