3 Spatial Data | Applied Spatial Statistics for Geographers
…
world[, 1:3] # subset columns by position

## Simple feature collection with 177 features and 3 fields
## geometry type:  MULTIPOLYGON
## dimension:      XY
## bbox:           xmin: -180 ymin: -90 xmax: 180 ymax: 83.64513
## CRS:            EPSG:4326
## # A tibble: 177 x 4
##    iso_a2 name_long    continent                                            geom
##    <chr>  <chr>        <chr>                                  <MULTIPOLYGON [°]>
##  1 FJ     Fiji         Oceania     (((180 -16.06713, 180 -16.55522, 179.3641 -1…
##  2 TZ     Tanzania     Africa      (((33.90371 -0.95, 34.07262 -1.05982, 37.698…
##  3 EH     Western Sah… Africa      (((-8.66559 27.65643, -8.665124 27.58948, -8…
##  4 CA     Canada       North Amer… (((-122.84 49, -122.9742 49.00254, -124.9102…
##  5 US     United Stat… North Amer… (((-122.84 49, -120 49, -117.0312 49, -116.0…
##  6 KZ     Kazakhstan   Asia        (((87.35997 49.21498, 86.59878 48.54918, 85.…
##  7 UZ     Uzbekistan   Asia        (((55.96819 41.30864, 55.92892 44.99586, 58.…
##  8 PG     Papua New G… Oceania     (((141.0002 -2.600151, 142.7352 -3.289153, 1…
##  9 ID     Indonesia    Asia        (((141.0002 -2.600151, 141.0171 -5.859022, 1…
## 10 AR     Argentina    South Amer… (((-68.63401 -52.63637, -68.25 -53.1, -67.75…
## # … with 167 more rows

world[, c("name_long", "lifeExp")] # subset columns by name

## Simple feature collection with 177 features and 2 fields
## geometry type:  MULTIPOLYGON
## dimension:      XY
## bbox:           xmin: -180 ymin: -90 xmax: 180 ymax: 83.64513
## CRS:            EPSG:4326
## # A tibble: 177 x 3
##    name_long      lifeExp                                                   geom
##    <chr>            <dbl>                                     <MULTIPOLYGON [°]>
##  1 Fiji              70.0 (((180 -16.06713, 180 -16.55522, 179.3641 -16.80135, …
##  2 Tanzania          64.2 (((33.90371 -0.95, 34.07262 -1.05982, 37.69869 -3.096…
##  3 Western Sahara    NA   (((-8.66559 27.65643, -8.665124 27.58948, -8.6844 27.…
##  4 Canada            82.0 (((-122.84 49, -122.9742 49.00254, -124.9102 49.98456…
##  5 United States     78.8 (((-122.84 49, -120 49, -117.0312 49, -116.0482 49, -…
##  6 Kazakhstan        71.6 (((87.35997 49.21498, 86.59878 48.54918, 85.76823 48.…
##  7 Uzbekistan        71.0 (((55.96819 41.30864, 55.92892 44.99586, 58.50313 45.…
##  8 Papua New Gui…    65.2 (((141.0002 -2.600151, 142.7352 -3.289153, 144.584 -3…
##  9 Indonesia         68.9 (((141.0002 -2.600151, 141.0171 -5.859022, 141.0339 -…
## 10 Argentina         76.3 (((-68.63401 -52.63637, -68.25 -53.1, -67.75 -53.85, …
## # … with 167 more rows
…
It is also possible to join in the other direction: starting with a regular data frame and adding variables from a simple features object.

Often, we would like to create a new column based on already existing columns. For example, we want to calculate population density for each country. For this we need to divide a population column, here pop, by an area column, here area_km2 with unit area in square kilometers.

We use one of the verbs - mutate() or transmute(). mutate() adds new columns in the sf object (the last one is reserved for the geometry).

world %>% 
  mutate(pop_dens = pop / area_km2)

## Simple feature collection with 177 features and 11 fields
## geometry type:  MULTIPOLYGON
## dimension:      XY
## bbox:           xmin: -180 ymin: -90 xmax: 180 ymax: 83.64513
## CRS:            EPSG:4326
## # A tibble: 177 x 12
##    iso_a2 name_long continent region_un subregion type  area_km2     pop lifeExp
##  * <chr>  <chr>     <chr>     <chr>     <chr>     <chr>    <dbl>   <dbl>   <dbl>
##  1 FJ     Fiji      Oceania   Oceania   Melanesia Sove…   1.93e4  8.86e5    70.0
##  2 TZ     Tanzania  Africa    Africa    Eastern … Sove…   9.33e5  5.22e7    64.2
##  3 EH     Western … Africa    Africa    Northern… Inde…   9.63e4 NA         NA  
##  4 CA     Canada    North Am… Americas  Northern… Sove…   1.00e7  3.55e7    82.0
##  5 US     United S… North Am… Americas  Northern… Coun…   9.51e6  3.19e8    78.8
##  6 KZ     Kazakhst… Asia      Asia      Central … Sove…   2.73e6  1.73e7    71.6
##  7 UZ     Uzbekist… Asia      Asia      Central … Sove…   4.61e5  3.08e7    71.0
##  8 PG     Papua Ne… Oceania   Oceania   Melanesia Sove…   4.65e5  7.76e6    65.2
##  9 ID     Indonesia Asia      Asia      South-Ea… Sove…   1.82e6  2.55e8    68.9
## 10 AR     Argentina South Am… Americas  South Am… Sove…   2.78e6  4.30e7    76.3
## # … with 167 more rows, and 3 more variables: gdpPercap <dbl>,
## #   geom <MULTIPOLYGON [°]>, pop_dens <dbl>
…
Here the cookie cutters are the damage path POLYGONS and the tract-level population estimate is the dough.

Here we want weight = "total" so that the proportion of the tract area that is covered by the tornado path is used to weight the population of the tract. To simply preview the weights we use the aw_preview_weights() function as follows. The first argument is the cookie cutter simple feature data frame name, the second argument (tid) is the unique row identifier in the cookie cutter data frame. The source = argument names the simple feature data frame from which the cuts are made (here tractPop). The sid = argument is the unique row identifier in the source data frame. The final argument is the type of interpolation (either intensive or extensive in quotes).

aw_preview_weights(sfdfB, 
                   tid = om, 
                   source = tractPop, 
                   sid = GEOID, 
                   type = "extensive")

## # A tibble: 34 x 3
##    GEOID       extensiveSum extensiveTotal
##    <chr>              <dbl>          <dbl>
##  1 12003040102            1   0.000354    
##  2 12005000202            1   0.00000523  
##  3 12009060300            1   0.000404    
##  4 12013010200            1   0.000131    
##  5 12013010300            1   0.00859     
##  6 12023110601            1   0.000312    
##  7 12037970200            1   0.000000651 
##  8 12039020400            1   0.00535     
##  9 12039020800            1   0.00970     
## 10 12051000300            1   0.0000000495
## # … with 24 more rows
…
